<svg xmlns="http://www.w3.org/2000/svg" width="24" height="24" viewBox="0 0 24 24">
    <path fill="#A2A6A9" fill-rule="evenodd" d="M12 24C5.372 24 0 18.637 0 12.022 0 5.408 5.372.044 12 .044c6.626 0 12 5.364 12 11.978C24 18.637 18.625 24 12 24zm3-1.984a10.499 10.499 0 0 0 7.034-7h-4.855a6.08 6.08 0 0 1-2.18 2.164v4.836zm1.5-9.994c0-2.48-2.016-4.491-4.5-4.491a4.496 4.496 0 0 0-4.5 4.49 4.495 4.495 0 0 0 4.5 4.492c2.484 0 4.5-2.01 4.5-4.491zm-6 10.33c.493.071.985.15 1.5.15.513 0 1.005-.079 1.5-.15v-4.553c-.483.125-.98.212-1.5.212a5.942 5.942 0 0 1-1.5-.212v4.553zM9 22.016V17.18a6.064 6.064 0 0 1-2.18-2.163H1.965a10.499 10.499 0 0 0 7.035 7zm-7.5-9.994c0 .511.053 1.008.124 1.498h4.58A5.87 5.87 0 0 1 6 12.022c0-.52.078-1.018.204-1.498h-4.58c-.07.49-.124.986-.124 1.498zM9 2.028a10.497 10.497 0 0 0-7.035 7h4.854a6.082 6.082 0 0 1 2.18-2.165V2.028zm4.5-.335c-.495-.072-.987-.152-1.5-.152-.515 0-1.007.08-1.5.152v4.552a5.942 5.942 0 0 1 1.5-.212c.52 0 1.017.087 1.5.212V1.693zm1.5.335v4.835c.9.523 1.652 1.27 2.18 2.165h4.854a10.497 10.497 0 0 0-7.034-7zm2.795 8.496c.126.48.204.978.204 1.498a5.87 5.87 0 0 1-.204 1.498h4.58c.07-.49.124-.987.124-1.498 0-.512-.054-1.007-.125-1.498h-4.58z"/>
</svg>
