<svg xmlns="http://www.w3.org/2000/svg" width="24" height="24" viewBox="0 0 24 24">
    <g fill="#FFF" fill-rule="nonzero">
        <path d="M12 22.459c5.799 0 10.5-4.693 10.5-10.481S17.799 1.498 12 1.498 1.5 6.19 1.5 11.977s4.701 10.48 10.5 10.48zm0 1.497c-6.627 0-12-5.363-12-11.978C0 5.363 5.373 0 12 0s12 5.363 12 11.978c0 6.615-5.373 11.978-12 11.978z"/>
        <path d="M11.25.749V12.69l.208.217 7.5 7.823 1.084-1.035-7.5-7.823.208.517V.75z"/>
        <path d="M12.75 12.727h10.5v-1.498h-10.5z"/>
    </g>
</svg>
