<svg xmlns="http://www.w3.org/2000/svg" width="40" height="40" viewBox="0 0 40 40">
    <defs>
        <linearGradient id="a" x1="22.351%" x2="98.837%" y1="-12.223%" y2="152.777%">
            <stop offset="0%" stop-color="#27BBE4"/>
            <stop offset="100%" stop-color="#9DD7E8"/>
        </linearGradient>
    </defs>
    <g fill="none" fill-rule="evenodd">
        <path fill="url(#a)" d="M22 1.155l13.32 7.69a4 4 0 0 1 2 3.464v15.382a4 4 0 0 1-2 3.464L22 38.845a4 4 0 0 1-4 0l-13.32-7.69a4 4 0 0 1-2-3.464V12.309a4 4 0 0 1 2-3.464L18 1.155a4 4 0 0 1 4 0z"/>
        <g fill-rule="nonzero">
            <path fill="#030819" d="M20.868 24.075l3.745-1.606-3.745-6.18-9.471-.48 7.217 1.904 1.918 6.596 4.081-1.84" opacity=".3"/>
            <path fill="#FFF" d="M12.278 27.768l16.3-12.465L29.99 18.4l-1.853-.505-.065 3.213"/>
            <path fill="#F2F2F2" d="M26.79 21.652l-4.743-8.033-12.037-.609 9.174 2.423 2.487 8.357z"/>
        </g>
    </g>
</svg>
